NYC Schools
…
## # A tibble: 6 x 2
##   highschool schooltype 
##        <dbl> <chr>      
## 1         NA High School
## 2         NA High School
## 3         NA High School
## 4         NA High School
## 5         NA High School
## 6         NA High School

We would expect a 1 to appear next to high school. As there is not, well just leave it for now regarding the district data.

survey_district

## # A tibble: 56 x 32
##    dbn    bn    schoolname     d75 studentssurveyed highschool schooltype   rr_s
##    <chr>  <chr> <chr>        <dbl> <chr>                 <dbl> <chr>       <dbl>
##  1 75K004 K004  P.S. K004        1 Yes                       0 District 7    38
##  2 75K036 K036  P.S. 36          1 Yes                      NA District 7    70
##  3 75K053 K053  P.S. K053        1 Yes                      NA District 7    94
##  4 75K077 K077  P.S. K077        1 Yes                      NA District 7    95
##  5 75K140 K140  P.S. K140        1 Yes                       0 District 7    77
##  6 75K141 K141  P.S. K141        1 Yes                      NA District 7    73
##  7 75K231 K231  P.S. K231        1 Yes                       0 District 7   100
##  8 75K368 K368  P.S. 368         1 Yes                      NA District 7    76
##  9 75K369 K369  P.S. K369 -     1 Yes                      NA District 7    70
## 10 75K370 K370  P.S. 370         1 Yes                      NA District 7    46
## #  with 46 more rows, and 24 more variables: rr_t <dbl>, rr_p <dbl>,
## #   N_s <dbl>, N_t <dbl>, N_p <dbl>, nr_s <dbl>, nr_t <dbl>, nr_p <dbl>,
## #   saf_p_11 <dbl>, com_p_11 <dbl>, eng_p_11 <dbl>, aca_p_11 <dbl>,
## #   saf_t_11 <dbl>, com_t_11 <dbl>, eng_t_11 <dbl>, aca_t_11 <dbl>,
## #   saf_s_11 <dbl>, com_s_11 <dbl>, eng_s_11 <dbl>, aca_s_11 <dbl>,
## #   saf_tot_11 <dbl>, com_tot_11 <dbl>, eng_tot_11 <dbl>, aca_tot_11 <dbl>

survey_general

## # A tibble: 383 x 32
##    dbn    bn    schoolname      d75 studentssurveyed highschool schooltype  rr_s
##    <chr>  <chr> <chr>         <dbl> <chr>                 <dbl> <chr>      <dbl>
##  1 01M448 M448  University N     0 Yes                      NA High Scho    84
##  2 01M458 M458  Forsyth Sate     0 Yes                      NA High Scho    40
##  3 01M509 M509  Marta Valle      0 Yes                      NA High Scho    90
##  4 01M515 M515  Lower East S     0 Yes                      NA High Scho    95
##  5 01M650 M650  Cascades Hig     0 Yes                      NA High Scho    75
##  6 01M696 M696  Bard High Sc     0 Yes                      NA High Scho    98
##  7 02M047 M047  47 The Ameri     0 Yes                      NA High Scho    72
##  8 02M288 M288  Food and Fin     0 Yes                      NA High Scho    86
##  9 02M294 M294  Essex Street     0 Yes                      NA High Scho    48
## 10 02M296 M296  High School      0 Yes                      NA High Scho    61
## #  with 373 more rows, and 24 more variables: rr_t <dbl>, rr_p <dbl>,
## #   N_s <dbl>, N_t <dbl>, N_p <dbl>, nr_s <dbl>, nr_t <dbl>, nr_p <dbl>,
## #   saf_p_11 <dbl>, com_p_11 <dbl>, eng_p_11 <dbl>, aca_p_11 <dbl>,
## #   saf_t_11 <dbl>, com_t_11 <dbl>, eng_t_11 <dbl>, aca_t_11 <dbl>,
## #   saf_s_11 <dbl>, com_s_11 <dbl>, eng_s_11 <dbl>, aca_s_11 <dbl>,
## #   saf_tot_11 <dbl>, com_tot_11 <dbl>, eng_tot_11 <dbl>, aca_tot_11 <dbl>

Combining Data

Next up, we want to combine the general and distinct dataframes. Well use bind_rows for this.

# Combine dataframes
general_district <- survey_general %>%
  bind_rows(survey_district)

general_district

## # A tibble: 439 x 32
##    dbn    bn    schoolname      d75 studentssurveyed highschool schooltype  rr_s
##    <chr>  <chr> <chr>         <dbl> <chr>                 <dbl> <chr>      <dbl>
##  1 01M448 M448  University N     0 Yes                      NA High Scho    84
##  2 01M458 M458  Forsyth Sate     0 Yes                      NA High Scho    40
##  3 01M509 M509  Marta Valle      0 Yes                      NA High Scho    90
##  4 01M515 M515  Lower East S     0 Yes                      NA High Scho    95
##  5 01M650 M650  Cascades Hig     0 Yes                      NA High Scho    75
##  6 01M696 M696  Bard High Sc     0 Yes                      NA High Scho    98
##  7 02M047 M047  47 The Ameri     0 Yes                      NA High Scho    72
##  8 02M288 M288  Food and Fin     0 Yes                      NA High Scho    86
##  9 02M294 M294  Essex Street     0 Yes                      NA High Scho    48
## 10 02M296 M296  High School      0 Yes                      NA High Scho    61
## #  with 429 more rows, and 24 more variables: rr_t <dbl>, rr_p <dbl>,
## #   N_s <dbl>, N_t <dbl>, N_p <dbl>, nr_s <dbl>, nr_t <dbl>, nr_p <dbl>,
## #   saf_p_11 <dbl>, com_p_11 <dbl>, eng_p_11 <dbl>, aca_p_11 <dbl>,
## #   saf_t_11 <dbl>, com_t_11 <dbl>, eng_t_11 <dbl>, aca_t_11 <dbl>,
## #   saf_s_11 <dbl>, com_s_11 <dbl>, eng_s_11 <dbl>, aca_s_11 <dbl>,
## #   saf_tot_11 <dbl>, com_tot_11 <dbl>, eng_tot_11 <dbl>, aca_tot_11 <dbl>

Now that weve combined those dataframes, well join it up with the combined dataframe.

combined

## # A tibble: 479 x 30
##    DBN    school_name       `Num of SAT Test `SAT Critical Re `SAT Math Avg. 
##    <chr>  <chr>                         <dbl>             <dbl>            <dbl>
##  1 01M292 HENRY STREET SCH                29               355              404
##  2 01M448 UNIVERSITY NEIGH                91               383              423
##  3 01M450 EAST SIDE COMMUN                70               377              402
##  4 01M458 FORSYTH SATELLIT                 7               414              401
##  5 01M509 MARTA VALLE HIGH                44               390              433
##  6 01M515 LOWER EAST SIDE                112               332              557
##  7 01M539 NEW EXPLORATIONS               159               522              574
##  8 01M650 CASCADES HIGH SC                18               417              418
##  9 01M696 BARD HIGH SCHOOL               130               624              604
## 10 02M047 47 THE AMERICAN                 16               395              400
## #  with 469 more rows, and 25 more variables: SAT Writing Avg. Score <dbl>,
## #   avg_sat_score <dbl>, AP Test Takers <dbl>, Total Exams Taken <dbl>,
## #   Number of Exams with scores 3 4 or 5 <dbl>, exams_per_student <dbl>,
## #   high_score_percent <dbl>, avg_class_size <dbl>, frl_percent <dbl>,
## #   total_enrollment <dbl>, ell_percent <dbl>, sped_percent <dbl>,
## #   selfcontained_num <dbl>, asian_per <dbl>, black_per <dbl>,
## #   hispanic_per <dbl>, white_per <dbl>, male_per <dbl>, female_per <dbl>,
## #   Total Cohort <dbl>, grads_percent <dbl>, dropout_percent <dbl>, boro <chr>,
## #   lat <dbl>, long <dbl>

We can do this with the dbn column, although well need to eithe rename it or set it to upper case

# Renaming DBN column to be aligned with other dataframe
general_district <- general_district %>%
  rename(DBN = dbn)

general_district

## # A tibble: 439 x 32
##    DBN    bn    schoolname      d75 studentssurveyed highschool schooltype  rr_s
##    <chr>  <chr> <chr>         <dbl> <chr>                 <dbl> <chr>      <dbl>
##  1 01M448 M448  University N     0 Yes                      NA High Scho    84
##  2 01M458 M458  Forsyth Sate     0 Yes                      NA High Scho    40
##  3 01M509 M509  Marta Valle      0 Yes                      NA High Scho    90
##  4 01M515 M515  Lower East S     0 Yes                      NA High Scho    95
##  5 01M650 M650  Cascades Hig     0 Yes                      NA High Scho    75
##  6 01M696 M696  Bard High Sc     0 Yes                      NA High Scho    98
##  7 02M047 M047  47 The Ameri     0 Yes                      NA High Scho    72
##  8 02M288 M288  Food and Fin     0 Yes                      NA High Scho    86
##  9 02M294 M294  Essex Street     0 Yes                      NA High Scho    48
## 10 02M296 M296  High School      0 Yes                      NA High Scho    61
## #  with 429 more rows, and 24 more variables: rr_t <dbl>, rr_p <dbl>,
## #   N_s <dbl>, N_t <dbl>, N_p <dbl>, nr_s <dbl>, nr_t <dbl>, nr_p <dbl>,
## #   saf_p_11 <dbl>, com_p_11 <dbl>, eng_p_11 <dbl>, aca_p_11 <dbl>,
## #   saf_t_11 <dbl>, com_t_11 <dbl>, eng_t_11 <dbl>, aca_t_11 <dbl>,
## #   saf_s_11 <dbl>, com_s_11 <dbl>, eng_s_11 <dbl>, aca_s_11 <dbl>,
## #   saf_tot_11 <dbl>, com_tot_11 <dbl>, eng_tot_11 <dbl>, aca_tot_11 <dbl>
…
